{
"https://www.googleapis.com/auth/adexchange.seller.readonly":{"score":1, "application": "AdExchange"},
"https://www.googleapis.com/auth/adexchange.buyer":{"score":3, "application": "AdExchange"},
"https://www.googleapis.com/auth/adexchange.seller":{"score":3, "application": "AdExchange"},

"https://www.googleapis.com/auth/admin.datatransfer.readonly":{"score":1, "application": "Admin"},
"https://www.googleapis.com/auth/admin.datatransfer":{"score":9, "application": "Admin"},

"https://www.googleapis.com/auth/admin.directory.customer":{"score":6, "application": "Directory"},
"https://www.googleapis.com/auth/admin.directory.customer.readonly":{"score":1, "application": "Directory"},
"https://www.googleapis.com/auth/admin.directory.device.chromeos":{"score":6, "application": "Directory"},
"https://www.googleapis.com/auth/admin.directory.device.chromeos.readonly":{"score":1, "application": "Directory"},
"https://www.googleapis.com/auth/admin.directory.device.mobile":{"score":5, "application": "Directory"},
"https://www.googleapis.com/auth/admin.directory.device.mobile.action":{"score":5, "application": "Directory"},
"https://www.googleapis.com/auth/admin.directory.device.mobile.readonly":{"score":1, "application": "Directory"},
"https://www.googleapis.com/auth/admin.directory.domain":{"score":6, "application": "Directory"},
"https://www.googleapis.com/auth/admin.directory.domain.readonly":{"score":1, "application": "Directory"},
"https://www.googleapis.com/auth/admin.directory.group":{"score":7, "application": "Directory"},
"https://www.googleapis.com/auth/admin.directory.group.member":{"score":8, "application": "Directory"},
"https://www.googleapis.com/auth/admin.directory.group.member.readonly":{"score":1, "application": "Directory"},
"https://www.googleapis.com/auth/admin.directory.group.readonly":{"score":1, "application": "Directory"},
"https://www.googleapis.com/auth/admin.directory.notifications":{"score":3, "application": "Directory"},
"https://www.googleapis.com/auth/admin.directory.orgunit":{"score":4, "application": "Directory"},
"https://www.googleapis.com/auth/admin.directory.orgunit.readonly":{"score":1, "application": "Directory"},
"https://www.googleapis.com/auth/admin.directory.resource.calendar":{"score":8, "application": "Directory"},
"https://www.googleapis.com/auth/admin.directory.resource.calendar.readonly":{"score":1, "application": "Directory"},
"https://www.googleapis.com/auth/admin.directory.rolemanagement":{"score":6, "application": "Directory"},
"https://www.googleapis.com/auth/admin.directory.rolemanagement.readonly":{"score":1, "application": "Directory"},
"https://www.googleapis.com/auth/admin.directory.user":{"score":10, "application": "Directory"},
"https://www.googleapis.com/auth/admin.directory.user.alias":{"score":3, "application": "Directory"},
"https://www.googleapis.com/auth/admin.directory.user.alias.readonly":{"score":1, "application": "Directory"},
"https://www.googleapis.com/auth/admin.directory.user.readonly":{"score":1, "application": "Directory"},
"https://www.googleapis.com/auth/admin.directory.user.security":{"score":5, "application": "Directory"},
"https://www.googleapis.com/auth/admin.directory.userschema":{"score":3, "application": "Directory"},
"https://www.googleapis.com/auth/admin.directory.userschema.readonly":{"score":1, "application": "Directory"},

"https://www.googleapis.com/auth/admin.reports.audit.readonly":{"score":2, "application": "AdminReports"},
"https://www.googleapis.com/auth/admin.reports.usage.readonly":{"score":2, "application": "AdminReports"},

"https://www.googleapis.com/auth/adsense.readonly":{"score":1, "application": "Adsense"},
"https://www.googleapis.com/auth/adsense":{"score":5, "application": "Adsense"},
"https://www.googleapis.com/auth/adsensehost":{"score":3, "application": "Adsense"},

"https://www.googleapis.com/auth/analytics.manage.users.readonly":{"score":1, "application": "Analytics"},
"https://www.googleapis.com/auth/analytics.readonly":{"score":1, "application": "Analytics"},
"https://www.googleapis.com/auth/analytics.edit":{"score":3, "application": "Analytics"},
"https://www.googleapis.com/auth/analytics.manage.users":{"score":7, "application": "Analytics"},
"https://www.googleapis.com/auth/analytics.provision":{"score":6, "application": "Analytics"},
"https://www.googleapis.com/auth/analytics":{"score":7, "application": "Analytics"},

"https://www.googleapis.com/auth/androidenterprise":{"score":3, "application": "Android"},
"https://www.googleapis.com/auth/androidmanagement":{"score":6, "application": "Android"},
"https://www.googleapis.com/auth/androidpublisher":{"score":6, "application": "Android"},

"https://www.googleapis.com/auth/appengine.admin":{"score":7, "application": "GoogleCloud"},
"https://www.googleapis.com/auth/cloud-platform":{"score":10, "application": "GoogleCloud"},
"https://www.googleapis.com/auth/cloud-platform.read-only":{"score":3, "application": "GoogleCloud"},
"https://www.googleapis.com/auth/bigquery":{"score":8, "application": "GoogleCloud"},
"https://www.googleapis.com/auth/bigquery.insertdata":{"score":7, "application": "GoogleCloud"},
"https://www.googleapis.com/auth/devstorage.full_control":{"score":9, "application": "GoogleCloud"},
"https://www.googleapis.com/auth/devstorage.read_only":{"score":1, "application": "GoogleCloud"},
"https://www.googleapis.com/auth/devstorage.read_write":{"score":8, "application": "GoogleCloud"},
"https://www.googleapis.com/auth/cloudiot":{"score":7, "application": "GoogleCloud"},
"https://www.googleapis.com/auth/cloud.useraccounts":{"score":9, "application": "GoogleCloud"},
"https://www.googleapis.com/auth/cloud.useraccounts.readonly":{"score":1, "application": "GoogleCloud"},
"https://www.googleapis.com/auth/compute":{"score":10, "application": "GoogleCloud"},
"https://www.googleapis.com/auth/compute.readonly":{"score":1, "application": "GoogleCloud"},
"https://www.googleapis.com/auth/datastore":{"score":9, "application": "GoogleCloud"},
"https://www.googleapis.com/auth/ndev.cloudman":{"score":7, "application": "GoogleCloud"},
"https://www.googleapis.com/auth/ndev.cloudman.readonly":{"score":1, "application": "GoogleCloud"},
"https://www.googleapis.com/auth/ndev.clouddns.readonly":{"score":1, "application": "GoogleCloud"},
"https://www.googleapis.com/auth/ndev.clouddns.readwrite":{"score":7, "application": "GoogleCloud"},
"https://www.googleapis.com/auth/genomics":{"score":7, "application": "GoogleCloud"},
"https://www.googleapis.com/auth/genomics.readonly":{"score":1, "application": "GoogleCloud"},
"https://www.googleapis.com/auth/cloud-language":{"score":7, "application": "GoogleCloud"},
"https://www.googleapis.com/auth/prediction":{"score":6, "application": "GoogleCloud"},
"https://www.googleapis.com/auth/pubsub":{"score":6, "application": "GoogleCloud"},
"https://www.googleapis.com/auth/cloudruntimeconfig":{"score":7, "application": "GoogleCloud"},
"https://www.googleapis.com/auth/servicecontrol":{"score":6, "application": "GoogleCloud"},
"https://www.googleapis.com/auth/sqlservice.admin":{"score":8, "application": "GoogleCloud"},
"https://www.googleapis.com/auth/firebase":{"score":8, "application": "GoogleCloud"},
"https://www.googleapis.com/auth/firebase.readonly":{"score":1, "application": "GoogleCloud"},

"https://www.googleapis.com/auth/activity":{"score":5, "application": "GSuite"},
"https://www.googleapis.com/auth/apps.licensing":{"score":4, "application": "GSuite"},
"https://www.googleapis.com/auth/appstate":{"score":6, "application": "GSuite"},

"https://www.googleapis.com/auth/blogger":{"score":5, "application": "Blogger"},
"https://www.googleapis.com/auth/blogger.readonly":{"score":1, "application": "Blogger"},
"https://www.googleapis.com/auth/books":{"score":5, "application": "Blogger"},

"https://www.googleapis.com/auth/calendar":{"score":8, "application": "Calendar"},
"https://www.googleapis.com/auth/calendar.readonly":{"score":1, "application": "Calendar"},

"https://www.googleapis.com/auth/classroom.announcements":{"score":1, "application": "Classroom"},
"https://www.googleapis.com/auth/classroom.announcements.readonly":{"score":1, "application": "Classroom"},
"https://www.googleapis.com/auth/classroom.courses":{"score":7, "application": "Classroom"},
"https://www.googleapis.com/auth/classroom.courses.readonly":{"score":1, "application": "Classroom"},
"https://www.googleapis.com/auth/classroom.coursework.me":{"score":1, "application": "Classroom"},
"https://www.googleapis.com/auth/classroom.coursework.me.readonly":{"score":1, "application": "Classroom"},
"https://www.googleapis.com/auth/classroom.coursework.students":{"score":1, "application": "Classroom"},
"https://www.googleapis.com/auth/classroom.coursework.students.readonly":{"score":1, "application": "Classroom"},
"https://www.googleapis.com/auth/classroom.guardianlinks.me.readonly":{"score":1, "application": "Classroom"},
"https://www.googleapis.com/auth/classroom.guardianlinks.students":{"score":1, "application": "Classroom"},
"https://www.googleapis.com/auth/classroom.guardianlinks.students.readonly":{"score":1, "application": "Classroom"},
"https://www.googleapis.com/auth/classroom.profile.emails":{"score":1, "application": "Classroom"},
"https://www.googleapis.com/auth/classroom.profile.photos":{"score":1, "application": "Classroom"},
"https://www.googleapis.com/auth/classroom.rosters":{"score":6, "application": "Classroom"},
"https://www.googleapis.com/auth/classroom.rosters.readonly":{"score":1, "application": "Classroom"},
"https://www.googleapis.com/auth/classroom.push-notifications":{"score":1, "application": "Classroom"},
"https://www.googleapis.com/auth/classroom.student-submissions.me.readonly":{"score":1, "application": "Classroom"},
"https://www.googleapis.com/auth/classroom.student-submissions.students.readonly":{"score":1, "application": "Classroom"},

"https://www.googleapis.com/auth/drive":{"score":10, "application": "Drive"},
"https://www.googleapis.com/auth/drive.appdata":{"score":7, "application": "Drive"},
"https://www.googleapis.com/auth/drive.file":{"score":8, "application": "Drive"},
"https://www.googleapis.com/auth/drive.metadata":{"score":5, "application": "Drive"},
"https://www.googleapis.com/auth/drive.metadata.readonly":{"score":4, "application": "Drive"},
"https://www.googleapis.com/auth/drive.photos.readonly":{"score":1, "application": "Drive"},
"https://www.googleapis.com/auth/drive.readonly":{"score":6, "application": "Drive"},
"https://www.googleapis.com/auth/drive.scripts":{"score":9, "application": "Drive"},
"https://www.googleapis.com/auth/spreadsheets":{"score":10, "application": "Drive"},
"https://www.googleapis.com/auth/spreadsheets.readonly":{"score":4, "application": "Drive"},
"https://www.googleapis.com/auth/presentations":{"score":10, "application": "Drive"},
"https://www.googleapis.com/auth/presentations.readonly":{"score":4, "application": "Drive"},

"https://www.googleapis.com/auth/fitness.activity.read":{"score":1, "application": "Fitness"},
"https://www.googleapis.com/auth/fitness.activity.write":{"score":1, "application": "Fitness"},
"https://www.googleapis.com/auth/fitness.blood_glucose.read":{"score":1, "application": "Fitness"},
"https://www.googleapis.com/auth/fitness.blood_glucose.write":{"score":1, "application": "Fitness"},
"https://www.googleapis.com/auth/fitness.blood_pressure.read":{"score":1, "application": "Fitness"},
"https://www.googleapis.com/auth/fitness.blood_pressure.write":{"score":1, "application": "Fitness"},
"https://www.googleapis.com/auth/fitness.body.read":{"score":1, "application": "Fitness"},
"https://www.googleapis.com/auth/fitness.body.write":{"score":1, "application": "Fitness"},
"https://www.googleapis.com/auth/fitness.body_temperature.read":{"score":1, "application": "Fitness"},
"https://www.googleapis.com/auth/fitness.body_temperature.write":{"score":1, "application": "Fitness"},
"https://www.googleapis.com/auth/fitness.location.read":{"score":1, "application": "Fitness"},
"https://www.googleapis.com/auth/fitness.location.write":{"score":1, "application": "Fitness"},
"https://www.googleapis.com/auth/fitness.nutrition.read":{"score":1, "application": "Fitness"},
"https://www.googleapis.com/auth/fitness.nutrition.write":{"score":1, "application": "Fitness"},
"https://www.googleapis.com/auth/fitness.oxygen_saturation.read":{"score":1, "application": "Fitness"},
"https://www.googleapis.com/auth/fitness.oxygen_saturation.write":{"score":1, "application": "Fitness"},
"https://www.googleapis.com/auth/fitness.reproductive_health.read":{"score":1, "application": "Fitness"},
"https://www.googleapis.com/auth/fitness.reproductive_health.write":{"score":1, "application": "Fitness"},

"https://www.googleapis.com/auth/plus.login":{"score":1, "application": "Profile"},
"https://www.googleapis.com/auth/plus.me":{"score":2, "application": "Profile"},
"profile":{"score":1, "application": "Profile"},
"email":{"score":2, "application": "Profile"},
"openid":{"score":1, "application": "Profile"},
"https://www.googleapis.com/auth/userinfo.email":{"score":2, "application": "Profile"},
"https://www.googleapis.com/auth/userinfo.profile":{"score":1, "application": "Profile"},

"https://mail.google.com/":{"score":10, "application": "Gmail"},
"https://www.googleapis.com/auth/gmail.compose":{"score":10, "application": "Gmail"},
"https://www.googleapis.com/auth/gmail.insert":{"score":10, "application": "Gmail"},
"https://www.googleapis.com/auth/gmail.labels":{"score":7, "application": "Gmail"},
"https://www.googleapis.com/auth/gmail.metadata":{"score":7, "application": "Gmail"},
"https://www.googleapis.com/auth/gmail.modify":{"score":8, "application": "Gmail"},
"https://www.googleapis.com/auth/gmail.send":{"score":8, "application": "Gmail"},
"https://www.googleapis.com/auth/gmail.settings.basic":{"score":1, "application": "Gmail"},
"https://www.googleapis.com/auth/gmail.settings.sharing":{"score":1, "application": "Gmail"},
"https://www.googleapis.com/auth/gmail.readonly":{"score":7, "application": "Gmail"},

"https://www.googleapis.com/auth/apps.groups.migration":{"score":9, "application": "Groups"},
"https://www.googleapis.com/auth/apps.groups.settings":{"score":4, "application": "Groups"},

"https://www.googleapis.com/auth/contacts":{"score":9, "application": "Contacts"},
"https://www.googleapis.com/auth/contacts.readonly":{"score":7, "application": "Contacts"},

"https://www.googleapis.com/auth/user.addresses.read":{"score":5, "application": "GooglePlus"},
"https://www.googleapis.com/auth/user.birthday.read":{"score":5, "application": "GooglePlus"},
"https://www.googleapis.com/auth/user.emails.read":{"score":7, "application": "GooglePlus"},
"https://www.googleapis.com/auth/user.phonenumbers.read":{"score":7, "application": "GooglePlus"},
"https://www.googleapis.com/auth/plus.circles.read":{"score":1, "application": "GooglePlus"},
"https://www.googleapis.com/auth/plus.profiles.read":{"score":1, "application": "GooglePlus"},
"https://www.googleapis.com/auth/plus.stream.read":{"score":1, "application": "GooglePlus"},

"https://www.googleapis.com/auth/tasks":{"score":8, "application": "Tasks"},
"https://www.googleapis.com/auth/tasks.readonly":{"score":6, "application": "Tasks"},

"https://www.googleapis.com/auth/ediscovery":{"score":10, "application": "Vault"},
"https://www.googleapis.com/auth/ediscovery.readonly":{"score":8, "application": "Vault"},

"https://www.googleapis.com/auth/youtube":{"score":10, "application": "Youtube"},
"https://www.googleapis.com/auth/youtube.force-ssl":{"score":7, "application": "Youtube"},
"https://www.googleapis.com/auth/youtube.readonly":{"score":5, "application": "Youtube"},
"https://www.googleapis.com/auth/youtube.upload":{"score":8, "application": "Youtube"},
"https://www.googleapis.com/auth/youtubepartner":{"score":4, "application": "Youtube"},
"https://www.googleapis.com/auth/youtubepartner-channel-audit":{"score":4, "application": "Youtube"},
"https://www.googleapis.com/auth/yt-analytics-monetary.readonly":{"score":7, "application": "Youtube"},
"https://www.googleapis.com/auth/yt-analytics.readonly":{"score":5, "application": "Youtube"}
}
